<?xml version="1.0" encoding="UTF-8"?>
<!DOCTYPE svg PUBLIC "-//W3C//DTD SVG 1.1//EN" "http://www.w3.org/Graphics/SVG/1.1/DTD/svg11.dtd">
<svg version="1.2" width="280mm" height="210mm" viewBox="0 0 28000 21000" preserveAspectRatio="xMidYMid" fill-rule="evenodd" stroke-width="28.222" stroke-linejoin="round" xmlns="http://www.w3.org/2000/svg" xmlns:ooo="http://xml.openoffice.org/svg/export" xmlns:xlink="http://www.w3.org/1999/xlink" xmlns:presentation="http://sun.com/xmlns/staroffice/presentation" xmlns:smil="http://www.w3.org/2001/SMIL20/" xmlns:anim="urn:oasis:names:tc:opendocument:xmlns:animation:1.0" xml:space="preserve">
 <defs class="ClipPathGroup">
  <clipPath id="presentation_clip_path" clipPathUnits="userSpaceOnUse">
   <rect x="0" y="0" width="28000" height="21000"/>
  </clipPath>
  <clipPath id="presentation_clip_path_shrink" clipPathUnits="userSpaceOnUse">
   <rect x="28" y="21" width="27944" height="20958"/>
  </clipPath>
 </defs>
 <defs>
  <font id="EmbeddedFont_1" horiz-adv-x="2048">
   <font-face font-family="Arial embedded" units-per-em="2048" font-weight="normal" font-style="normal" ascent="1852" descent="423"/>
   <missing-glyph horiz-adv-x="2048" d="M 0,0 L 2047,0 2047,2047 0,2047 0,0 Z"/>
   <glyph unicode="y" horiz-adv-x="980" d="M 127,-409 L 107,-240 C 146,-251 181,-256 210,-256 250,-256 282,-249 306,-236 330,-223 350,-204 365,-180 376,-162 395,-117 420,-46 423,-36 429,-21 436,-2 L 33,1062 227,1062 448,447 C 477,369 502,287 525,201 546,284 570,364 599,443 L 826,1062 1006,1062 602,-18 C 559,-135 525,-215 501,-259 469,-318 432,-362 391,-390 350,-417 300,-431 243,-431 208,-431 170,-424 127,-409 Z"/>
   <glyph unicode="w" horiz-adv-x="1456" d="M 331,0 L 6,1062 192,1062 361,449 424,221 C 427,232 445,305 479,440 L 648,1062 833,1062 992,446 1045,243 1106,448 1288,1062 1463,1062 1131,0 944,0 775,636 734,817 519,0 331,0 Z"/>
   <glyph unicode="v" horiz-adv-x="1006" d="M 430,0 L 26,1062 216,1062 444,426 C 469,357 491,286 512,212 528,268 550,335 579,414 L 815,1062 1000,1062 598,0 430,0 Z"/>
   <glyph unicode="u" horiz-adv-x="900" d="M 831,0 L 831,156 C 748,36 636,-24 494,-24 431,-24 373,-12 319,12 264,36 224,66 198,103 171,139 153,183 142,236 135,271 131,327 131,404 L 131,1062 311,1062 311,473 C 311,379 315,316 322,283 333,236 357,199 394,172 431,145 476,131 530,131 584,131 635,145 682,173 729,200 763,238 783,286 802,333 812,402 812,493 L 812,1062 992,1062 992,0 831,0 Z"/>
   <glyph unicode="t" horiz-adv-x="531" d="M 528,161 L 554,2 C 503,-9 458,-14 418,-14 353,-14 302,-4 266,17 230,38 205,65 190,99 175,132 168,203 168,311 L 168,922 36,922 36,1062 168,1062 168,1325 347,1433 347,1062 528,1062 528,922 347,922 347,301 C 347,250 350,217 357,202 363,187 373,176 388,167 402,158 422,154 449,154 469,154 495,156 528,161 Z"/>
   <glyph unicode="s" horiz-adv-x="901" d="M 63,317 L 241,345 C 251,274 279,219 325,181 370,143 434,124 516,124 599,124 660,141 700,175 740,208 760,248 760,293 760,334 742,366 707,389 682,405 621,425 523,450 391,483 300,512 249,537 198,561 159,595 133,638 106,681 93,728 93,780 93,827 104,871 126,912 147,952 177,985 214,1012 242,1033 280,1050 329,1065 377,1079 429,1086 484,1086 567,1086 641,1074 704,1050 767,1026 813,994 843,953 873,912 894,857 905,788 L 729,764 C 721,819 698,861 660,892 621,923 567,938 497,938 414,938 355,924 320,897 285,870 267,838 267,801 267,778 274,757 289,738 304,719 327,703 358,690 376,683 429,668 517,644 644,610 733,582 784,561 834,539 873,507 902,466 931,425 945,373 945,312 945,252 928,196 893,143 858,90 807,49 741,20 675,-9 600,-24 517,-24 379,-24 274,5 202,62 129,119 83,204 63,317 Z"/>
   <glyph unicode="r" horiz-adv-x="583" d="M 133,0 L 133,1062 295,1062 295,901 C 336,976 375,1026 410,1050 445,1074 483,1086 525,1086 586,1086 647,1067 710,1028 L 648,861 C 604,887 560,900 516,900 477,900 441,888 410,865 379,841 356,808 343,766 323,702 313,632 313,556 L 313,0 133,0 Z"/>
   <glyph unicode="p" horiz-adv-x="927" d="M 135,-407 L 135,1062 299,1062 299,924 C 338,978 381,1019 430,1046 479,1073 538,1086 607,1086 698,1086 778,1063 847,1016 916,969 969,904 1004,819 1039,734 1057,640 1057,539 1057,430 1038,333 999,246 960,159 903,92 829,46 754,-1 676,-24 594,-24 534,-24 480,-11 433,14 385,39 346,71 315,110 L 315,-407 135,-407 Z M 298,525 C 298,388 326,287 381,222 436,157 503,124 582,124 662,124 731,158 788,226 845,293 873,398 873,540 873,675 845,777 790,844 734,911 667,945 590,945 513,945 446,909 387,838 328,766 298,662 298,525 Z"/>
   <glyph unicode="o" horiz-adv-x="1006" d="M 68,531 C 68,728 123,873 232,968 323,1047 435,1086 566,1086 712,1086 831,1038 924,943 1017,847 1063,715 1063,546 1063,409 1043,302 1002,224 961,145 901,84 823,41 744,-2 659,-24 566,-24 417,-24 297,24 206,119 114,214 68,352 68,531 Z M 253,531 C 253,395 283,293 342,226 401,158 476,124 566,124 655,124 730,158 789,226 848,294 878,398 878,537 878,668 848,768 789,836 729,903 655,937 566,937 476,937 401,903 342,836 283,769 253,667 253,531 Z"/>
   <glyph unicode="n" horiz-adv-x="874" d="M 135,0 L 135,1062 297,1062 297,911 C 375,1028 488,1086 635,1086 699,1086 758,1075 812,1052 865,1029 905,998 932,961 959,924 977,879 988,828 995,795 998,736 998,653 L 998,0 818,0 818,646 C 818,719 811,774 797,811 783,847 758,876 723,898 687,919 645,930 597,930 520,930 454,906 399,857 343,808 315,716 315,580 L 315,0 135,0 Z"/>
   <glyph unicode="m" horiz-adv-x="1457" d="M 135,0 L 135,1062 296,1062 296,913 C 329,965 374,1007 429,1039 484,1070 547,1086 618,1086 697,1086 761,1070 812,1037 862,1004 897,959 918,900 1002,1024 1111,1086 1246,1086 1351,1086 1432,1057 1489,999 1546,940 1574,850 1574,729 L 1574,0 1395,0 1395,669 C 1395,741 1389,793 1378,825 1366,856 1345,882 1314,901 1283,920 1247,930 1206,930 1131,930 1069,905 1020,856 971,806 946,726 946,617 L 946,0 766,0 766,690 C 766,770 751,830 722,870 693,910 645,930 578,930 527,930 481,917 438,890 395,863 363,824 344,773 325,722 315,648 315,551 L 315,0 135,0 Z"/>
   <glyph unicode="l" horiz-adv-x="213" d="M 131,0 L 131,1466 311,1466 311,0 131,0 Z"/>
   <glyph unicode="i" horiz-adv-x="187" d="M 136,1259 L 136,1466 316,1466 316,1259 136,1259 Z M 136,0 L 136,1062 316,1062 316,0 136,0 Z"/>
   <glyph unicode="h" horiz-adv-x="874" d="M 135,0 L 135,1466 315,1466 315,940 C 399,1037 505,1086 633,1086 712,1086 780,1071 838,1040 896,1009 938,966 963,911 988,856 1000,777 1000,673 L 1000,0 820,0 820,673 C 820,763 801,829 762,870 723,911 667,931 596,931 543,931 493,917 446,890 399,862 365,824 345,777 325,730 315,664 315,581 L 315,0 135,0 Z"/>
   <glyph unicode="g" horiz-adv-x="953" d="M 102,-88 L 277,-114 C 284,-168 305,-207 338,-232 383,-265 444,-282 521,-282 604,-282 669,-265 714,-232 759,-199 790,-152 806,-92 815,-55 820,22 819,139 740,46 642,0 525,0 379,0 266,53 186,158 106,263 66,390 66,537 66,638 84,732 121,818 158,903 211,969 281,1016 350,1063 432,1086 526,1086 651,1086 755,1035 836,934 L 836,1062 1002,1062 1002,144 C 1002,-21 985,-138 952,-208 918,-276 865,-331 792,-371 719,-411 629,-431 522,-431 395,-431 293,-402 215,-346 137,-288 99,-203 102,-88 Z M 251,550 C 251,411 279,309 334,245 389,181 459,149 542,149 625,149 694,181 750,245 806,308 834,408 834,544 834,674 805,772 748,838 690,904 620,937 539,937 459,937 391,905 335,840 279,775 251,678 251,550 Z"/>
   <glyph unicode="e" horiz-adv-x="1006" d="M 862,342 L 1048,319 C 1019,210 964,126 885,66 806,6 704,-24 581,-24 426,-24 303,24 212,120 121,215 75,349 75,522 75,701 121,839 213,938 305,1037 424,1086 571,1086 713,1086 829,1038 919,941 1009,844 1054,708 1054,533 1054,522 1054,506 1053,485 L 261,485 C 268,368 301,279 360,217 419,155 493,124 582,124 648,124 704,141 751,176 798,211 835,266 862,342 Z M 271,633 L 864,633 C 856,722 833,789 796,834 739,903 664,938 573,938 490,938 421,910 365,855 308,800 277,726 271,633 Z"/>
   <glyph unicode="d" horiz-adv-x="953" d="M 824,0 L 824,134 C 757,29 658,-24 527,-24 442,-24 365,-1 294,46 223,93 168,158 129,242 90,325 70,421 70,530 70,636 88,732 123,819 158,905 211,971 282,1017 353,1063 432,1086 519,1086 583,1086 640,1073 690,1046 740,1019 781,983 812,940 L 812,1466 991,1466 991,0 824,0 Z M 255,530 C 255,394 284,292 341,225 398,158 466,124 544,124 623,124 690,156 745,221 800,285 827,383 827,515 827,660 799,767 743,835 687,903 618,937 536,937 456,937 389,904 336,839 282,774 255,671 255,530 Z"/>
   <glyph unicode="c" horiz-adv-x="927" d="M 828,389 L 1005,366 C 986,244 936,149 857,80 777,11 679,-24 563,-24 418,-24 301,24 213,119 124,214 80,350 80,527 80,642 99,742 137,828 175,914 233,979 311,1022 388,1065 473,1086 564,1086 679,1086 774,1057 847,999 920,940 967,857 988,750 L 813,723 C 796,794 767,848 725,884 682,920 631,938 571,938 480,938 407,906 350,841 293,776 265,673 265,532 265,389 292,286 347,221 402,156 473,124 561,124 632,124 691,146 738,189 785,232 815,299 828,389 Z"/>
   <glyph unicode="a" horiz-adv-x="1006" d="M 828,131 C 761,74 697,34 636,11 574,-12 508,-24 437,-24 320,-24 231,5 168,62 105,119 74,191 74,280 74,332 86,380 110,423 133,466 164,500 203,526 241,552 284,572 332,585 367,594 421,603 492,612 637,629 744,650 813,674 814,699 814,714 814,721 814,794 797,846 763,876 717,917 649,937 558,937 473,937 411,922 371,893 330,863 300,810 281,735 L 105,759 C 121,834 147,895 184,942 221,988 274,1024 343,1049 412,1074 493,1086 584,1086 675,1086 748,1075 805,1054 862,1033 903,1006 930,974 957,941 975,900 986,851 992,820 995,765 995,685 L 995,445 C 995,278 999,172 1007,128 1014,83 1029,41 1052,0 L 864,0 C 845,37 833,81 828,131 Z M 813,533 C 748,506 650,484 519,465 445,454 393,442 362,429 331,416 308,396 291,371 274,345 266,316 266,285 266,237 284,197 321,165 357,133 410,117 480,117 549,117 611,132 665,163 719,193 759,234 784,287 803,328 813,388 813,467 L 813,533 Z"/>
   <glyph unicode="S" horiz-adv-x="1192" d="M 92,471 L 275,487 C 284,414 304,354 336,307 367,260 416,222 483,193 550,164 625,149 708,149 782,149 847,160 904,182 961,204 1003,234 1031,273 1058,311 1072,353 1072,398 1072,444 1059,484 1032,519 1005,553 961,582 900,605 861,620 774,644 639,677 504,709 410,739 356,768 286,805 234,850 200,905 165,959 148,1020 148,1087 148,1161 169,1230 211,1295 253,1359 314,1408 395,1441 476,1474 565,1491 664,1491 773,1491 869,1474 952,1439 1035,1404 1098,1352 1143,1284 1188,1216 1212,1139 1215,1053 L 1029,1039 C 1019,1132 985,1202 928,1249 870,1296 785,1320 672,1320 555,1320 469,1299 416,1256 362,1213 335,1161 335,1100 335,1047 354,1004 392,970 429,936 527,901 685,866 842,830 950,799 1009,772 1094,733 1157,683 1198,623 1239,562 1259,493 1259,414 1259,336 1237,263 1192,194 1147,125 1083,71 1000,33 916,-6 822,-25 717,-25 584,-25 473,-6 384,33 294,72 224,130 173,208 122,285 95,373 92,471 Z"/>
   <glyph unicode="P" horiz-adv-x="1165" d="M 158,0 L 158,1466 711,1466 C 808,1466 883,1461 934,1452 1006,1440 1066,1417 1115,1384 1164,1350 1203,1303 1233,1242 1262,1181 1277,1115 1277,1042 1277,917 1237,812 1158,726 1079,639 935,596 728,596 L 352,596 352,0 158,0 Z M 352,769 L 731,769 C 856,769 945,792 998,839 1051,886 1077,951 1077,1036 1077,1097 1062,1150 1031,1194 1000,1237 959,1266 908,1280 875,1289 815,1293 727,1293 L 352,1293 352,769 Z"/>
   <glyph unicode="F" horiz-adv-x="1006" d="M 168,0 L 168,1466 1157,1466 1157,1293 362,1293 362,839 1050,839 1050,666 362,666 362,0 168,0 Z"/>
   <glyph unicode="-" horiz-adv-x="583" d="M 65,440 L 65,621 618,621 618,440 65,440 Z"/>
   <glyph unicode=" " horiz-adv-x="556"/>
  </font>
 </defs>
 <defs class="TextShapeIndex">
  <g ooo:slide="id1" ooo:id-list="id3 id4 id5 id6 id7 id8 id9 id10 id11 id12 id13 id14 id15 id16 id17 id18 id19 id20 id21 id22 id23 id24 id25 id26 id27 id28 id29 id30 id31 id32 id33 id34 id35 id36 id37 id38 id39 id40 id41 id42 id43 id44 id45"/>
 </defs>
 <defs class="EmbeddedBulletChars">
  <g id="bullet-char-template-57356" transform="scale(0.00048828125,-0.00048828125)">
   <path d="M 580,1141 L 1163,571 580,0 -4,571 580,1141 Z"/>
  </g>
  <g id="bullet-char-template-57354" transform="scale(0.00048828125,-0.00048828125)">
   <path d="M 8,1128 L 1137,1128 1137,0 8,0 8,1128 Z"/>
  </g>
  <g id="bullet-char-template-10146" transform="scale(0.00048828125,-0.00048828125)">
   <path d="M 174,0 L 602,739 174,1481 1456,739 174,0 Z M 1358,739 L 309,1346 659,739 1358,739 Z"/>
  </g>
  <g id="bullet-char-template-10132" transform="scale(0.00048828125,-0.00048828125)">
   <path d="M 2015,739 L 1276,0 717,0 1260,543 174,543 174,936 1260,936 717,1481 1274,1481 2015,739 Z"/>
  </g>
  <g id="bullet-char-template-10007" transform="scale(0.00048828125,-0.00048828125)">
   <path d="M 0,-2 C -7,14 -16,27 -25,37 L 356,567 C 262,823 215,952 215,954 215,979 228,992 255,992 264,992 276,990 289,987 310,991 331,999 354,1012 L 381,999 492,748 772,1049 836,1024 860,1049 C 881,1039 901,1025 922,1006 886,937 835,863 770,784 769,783 710,716 594,584 L 774,223 C 774,196 753,168 711,139 L 727,119 C 717,90 699,76 672,76 641,76 570,178 457,381 L 164,-76 C 142,-110 111,-127 72,-127 30,-127 9,-110 8,-76 1,-67 -2,-52 -2,-32 -2,-23 -1,-13 0,-2 Z"/>
  </g>
  <g id="bullet-char-template-10004" transform="scale(0.00048828125,-0.00048828125)">
   <path d="M 285,-33 C 182,-33 111,30 74,156 52,228 41,333 41,471 41,549 55,616 82,672 116,743 169,778 240,778 293,778 328,747 346,684 L 369,508 C 377,444 397,411 428,410 L 1163,1116 C 1174,1127 1196,1133 1229,1133 1271,1133 1292,1118 1292,1087 L 1292,965 C 1292,929 1282,901 1262,881 L 442,47 C 390,-6 338,-33 285,-33 Z"/>
  </g>
  <g id="bullet-char-template-9679" transform="scale(0.00048828125,-0.00048828125)">
   <path d="M 813,0 C 632,0 489,54 383,161 276,268 223,411 223,592 223,773 276,916 383,1023 489,1130 632,1184 813,1184 992,1184 1136,1130 1245,1023 1353,916 1407,772 1407,592 1407,412 1353,268 1245,161 1136,54 992,0 813,0 Z"/>
  </g>
  <g id="bullet-char-template-8226" transform="scale(0.00048828125,-0.00048828125)">
   <path d="M 346,457 C 273,457 209,483 155,535 101,586 74,649 74,723 74,796 101,859 155,911 209,963 273,989 346,989 419,989 480,963 531,910 582,859 608,796 608,723 608,648 583,586 532,535 482,483 420,457 346,457 Z"/>
  </g>
  <g id="bullet-char-template-8211" transform="scale(0.00048828125,-0.00048828125)">
   <path d="M -4,459 L 1135,459 1135,606 -4,606 -4,459 Z"/>
  </g>
  <g id="bullet-char-template-61548" transform="scale(0.00048828125,-0.00048828125)">
   <path d="M 173,740 C 173,903 231,1043 346,1159 462,1274 601,1332 765,1332 928,1332 1067,1274 1183,1159 1299,1043 1357,903 1357,740 1357,577 1299,437 1183,322 1067,206 928,148 765,148 601,148 462,206 346,322 231,437 173,577 173,740 Z"/>
  </g>
 </defs>
 <defs class="TextEmbeddedBitmaps"/>
 <g>
  <g id="id2" class="Master_Slide">
   <g id="bg-id2" class="Background"/>
   <g id="bo-id2" class="BackgroundObjects"/>
  </g>
 </g>
 <g class="SlideGroup">
  <g>
   <g id="container-id1">
    <g id="id1" class="Slide" clip-path="url(#presentation_clip_path)">
     <g class="Page">
      <g class="com.sun.star.drawing.CustomShape">
       <g id="id3">
        <rect class="BoundingBox" stroke="none" fill="none" x="9906" y="8508" width="1525" height="382"/>
        <path fill="rgb(221,221,221)" stroke="none" d="M 10668,8889 L 9906,8889 9906,8508 11430,8508 11430,8889 10668,8889 Z"/>
       </g>
      </g>
      <g class="com.sun.star.drawing.CustomShape">
       <g id="id4">
        <rect class="BoundingBox" stroke="none" fill="none" x="18288" y="11810" width="255" height="382"/>
        <path fill="rgb(221,221,221)" stroke="none" d="M 18415,12191 L 18288,12191 18288,11810 18542,11810 18542,12191 18415,12191 Z"/>
       </g>
      </g>
      <g class="com.sun.star.drawing.CustomShape">
       <g id="id5">
        <rect class="BoundingBox" stroke="none" fill="none" x="18288" y="14223" width="255" height="382"/>
        <path fill="rgb(221,221,221)" stroke="none" d="M 18415,14604 L 18288,14604 18288,14223 18542,14223 18542,14604 18415,14604 Z"/>
       </g>
      </g>
      <g class="com.sun.star.drawing.CustomShape">
       <g id="id6">
        <rect class="BoundingBox" stroke="none" fill="none" x="4190" y="11556" width="1272" height="511"/>
        <path fill="rgb(178,178,178)" stroke="none" d="M 5461,12065 L 5461,11556 4190,11684 4190,11938 5461,12065 Z"/>
       </g>
      </g>
      <g class="com.sun.star.drawing.CustomShape">
       <g id="id7">
        <rect class="BoundingBox" stroke="none" fill="none" x="4189" y="13969" width="1273" height="510"/>
        <path fill="rgb(178,178,178)" stroke="none" d="M 5461,14478 L 5461,13969 4190,14097 4190,14351 5461,14478 Z"/>
       </g>
      </g>
      <g class="com.sun.star.drawing.OpenBezierShape">
       <g id="id8">
        <rect class="BoundingBox" stroke="none" fill="none" x="4190" y="14096" width="1146" height="257"/>
        <path fill="none" stroke="rgb(102,102,102)" d="M 5334,14224 C 5208,14097 5208,14097 5208,14097 L 5080,14351 4953,14097 4826,14351 4699,14224 4191,14224"/>
       </g>
      </g>
      <g class="com.sun.star.drawing.CustomShape">
       <g id="id9">
        <rect class="BoundingBox" stroke="none" fill="none" x="17272" y="11556" width="1272" height="510"/>
        <path fill="rgb(178,178,178)" stroke="none" d="M 17272,12065 L 17272,11556 18543,11684 18543,11938 17272,12065 Z"/>
       </g>
      </g>
      <g class="com.sun.star.drawing.CustomShape">
       <g id="id10">
        <rect class="BoundingBox" stroke="none" fill="none" x="20572" y="10412" width="4956" height="5464"/>
        <path fill="none" stroke="rgb(0,0,0)" d="M 23050,15874 L 20573,15874 20573,10413 25526,10413 25526,15874 23050,15874 Z"/>
        <text class="TextShape"><tspan class="TextParagraph" font-family="Arial, sans-serif" font-size="494px" font-weight="400"><tspan class="TextPosition" x="22074" y="13315"><tspan fill="rgb(0,0,0)" stroke="none">ammeter</tspan></tspan></tspan></text>
       </g>
      </g>
      <g class="com.sun.star.drawing.CustomShape">
       <g id="id11">
        <rect class="BoundingBox" stroke="none" fill="none" x="17272" y="13969" width="1272" height="510"/>
        <path fill="rgb(178,178,178)" stroke="none" d="M 17272,14478 L 17272,13969 18543,14097 18543,14351 17272,14478 Z"/>
       </g>
      </g>
      <g class="com.sun.star.drawing.CustomShape">
       <g id="id12">
        <rect class="BoundingBox" stroke="none" fill="none" x="14856" y="11425" width="2545" height="767"/>
        <path fill="rgb(182,52,52)" stroke="none" d="M 17399,11426 L 17399,12191 14857,12000 14857,11617 17399,11426 Z"/>
       </g>
      </g>
      <g class="com.sun.star.drawing.CustomShape">
       <g id="id13">
        <rect class="BoundingBox" stroke="none" fill="none" x="20572" y="2793" width="4956" height="6861"/>
        <path fill="none" stroke="rgb(0,0,0)" d="M 23050,9652 L 20573,9652 20573,2794 25526,2794 25526,9652 23050,9652 Z"/>
        <text class="TextShape"><tspan class="TextParagraph" font-family="Arial, sans-serif" font-size="494px" font-weight="400"><tspan class="TextPosition" x="21589" y="6395"><tspan fill="rgb(0,0,0)" stroke="none">power supply</tspan></tspan></tspan></text>
       </g>
      </g>
      <g class="com.sun.star.drawing.CustomShape">
       <g id="id14">
        <rect class="BoundingBox" stroke="none" fill="none" x="13587" y="6729" width="4956" height="1654"/>
        <path fill="none" stroke="rgb(0,0,0)" d="M 16065,8381 L 13588,8381 13588,6730 18541,6730 18541,8381 16065,8381 Z"/>
        <text class="TextShape"><tspan class="TextParagraph" font-family="Arial, sans-serif" font-size="494px" font-weight="400"><tspan class="TextPosition" x="14632" y="7727"><tspan fill="rgb(0,0,0)" stroke="none">driving motor</tspan></tspan></tspan></text>
       </g>
      </g>
      <g class="com.sun.star.drawing.CustomShape">
       <g id="id15">
        <rect class="BoundingBox" stroke="none" fill="none" x="4571" y="7364" width="5337" height="2670"/>
        <path fill="none" stroke="rgb(0,0,0)" d="M 7239,10032 L 4572,10032 4572,7365 9906,7365 9906,10032 7239,10032 Z"/>
        <text class="TextShape"><tspan class="TextParagraph" font-family="Arial, sans-serif" font-size="494px" font-weight="400"><tspan class="TextPosition" x="6179" y="8870"><tspan fill="rgb(0,0,0)" stroke="none">generator</tspan></tspan></tspan></text>
       </g>
      </g>
      <g class="com.sun.star.drawing.CustomShape">
       <g id="id16">
        <rect class="BoundingBox" stroke="none" fill="none" x="9016" y="2665" width="5591" height="1146"/>
        <path fill="none" stroke="rgb(0,0,0)" d="M 11811,3809 L 9017,3809 9017,2666 14605,2666 14605,3809 11811,3809 Z"/>
        <text class="TextShape"><tspan class="TextParagraph" font-family="Arial, sans-serif" font-size="494px" font-weight="400"><tspan class="TextPosition" x="9885" y="3409"><tspan fill="rgb(0,0,0)" stroke="none">high-FPS camera</tspan></tspan></tspan></text>
       </g>
      </g>
      <g class="com.sun.star.drawing.LineShape">
       <g id="id17">
        <rect class="BoundingBox" stroke="none" fill="none" x="7667" y="11728" width="7654" height="161"/>
        <path fill="none" stroke="rgb(182,52,52)" stroke-width="159" stroke-linejoin="round" d="M 7747,11808 L 15240,11808"/>
       </g>
      </g>
      <g class="com.sun.star.drawing.CustomShape">
       <g id="id18">
        <rect class="BoundingBox" stroke="none" fill="none" x="5326" y="11425" width="2545" height="767"/>
        <path fill="rgb(182,52,52)" stroke="none" d="M 5327,11426 L 5327,12191 7869,12000 7869,11617 5327,11426 Z"/>
       </g>
      </g>
      <g class="com.sun.star.drawing.CustomShape">
       <g id="id19">
        <rect class="BoundingBox" stroke="none" fill="none" x="14856" y="13841" width="2545" height="767"/>
        <path fill="rgb(0,0,0)" stroke="none" d="M 17399,13842 L 17399,14607 14857,14416 14857,14033 17399,13842 Z"/>
       </g>
      </g>
      <g class="com.sun.star.drawing.LineShape">
       <g id="id20">
        <rect class="BoundingBox" stroke="none" fill="none" x="7667" y="14144" width="7654" height="161"/>
        <path fill="none" stroke="rgb(0,0,0)" stroke-width="159" stroke-linejoin="round" d="M 7747,14224 L 15240,14224"/>
       </g>
      </g>
      <g class="com.sun.star.drawing.CustomShape">
       <g id="id21">
        <rect class="BoundingBox" stroke="none" fill="none" x="5326" y="13841" width="2545" height="767"/>
        <path fill="rgb(0,0,0)" stroke="none" d="M 5327,13842 L 5327,14607 7869,14416 7869,14033 5327,13842 Z"/>
       </g>
      </g>
      <g class="com.sun.star.drawing.OpenBezierShape">
       <g id="id22">
        <rect class="BoundingBox" stroke="none" fill="none" x="17398" y="11683" width="1146" height="257"/>
        <path fill="none" stroke="rgb(102,102,102)" d="M 17399,11811 L 17526,11684 17653,11938 17780,11684 17907,11938 18034,11811 18542,11811"/>
       </g>
      </g>
      <g class="com.sun.star.drawing.OpenBezierShape">
       <g id="id23">
        <rect class="BoundingBox" stroke="none" fill="none" x="17398" y="14096" width="1146" height="257"/>
        <path fill="none" stroke="rgb(102,102,102)" d="M 17399,14224 C 17526,14097 17526,14097 17526,14097 L 17653,14351 17780,14097 17907,14351 18034,14224 18542,14224"/>
       </g>
      </g>
      <g class="com.sun.star.drawing.OpenBezierShape">
       <g id="id24">
        <rect class="BoundingBox" stroke="none" fill="none" x="4190" y="11683" width="1146" height="257"/>
        <path fill="none" stroke="rgb(102,102,102)" d="M 5334,11811 C 5208,11684 5208,11684 5208,11684 L 5080,11938 4953,11684 4826,11938 4699,11811 4191,11811"/>
       </g>
      </g>
      <g class="com.sun.star.drawing.OpenBezierShape">
       <g id="id25">
        <rect class="BoundingBox" stroke="none" fill="none" x="18235" y="14604" width="2341" height="944"/>
        <path fill="none" stroke="rgb(0,0,0)" stroke-width="106" stroke-linejoin="round" d="M 20239,15367 L 18415,15367 18415,14940"/>
        <path fill="rgb(0,0,0)" stroke="none" d="M 20574,15187 L 20574,15546 20215,15546 20215,15187 20574,15187 Z"/>
        <path fill="rgb(0,0,0)" stroke="none" d="M 18236,14605 L 18595,14605 18595,14964 18236,14964 18236,14605 Z"/>
       </g>
      </g>
      <g class="com.sun.star.drawing.CustomShape">
       <g id="id26">
        <rect class="BoundingBox" stroke="none" fill="none" x="18034" y="14605" width="763" height="255"/>
        <path fill="rgb(0,0,0)" stroke="none" d="M 18415,14859 L 18034,14859 18034,14605 18796,14605 18796,14859 18415,14859 Z"/>
       </g>
      </g>
      <g class="com.sun.star.drawing.CustomShape">
       <g id="id27">
        <rect class="BoundingBox" stroke="none" fill="none" x="18288" y="14096" width="255" height="128"/>
        <path fill="rgb(221,221,221)" stroke="none" d="M 18415,14223 L 18288,14223 18288,14096 18542,14096 18542,14223 18415,14223 Z"/>
       </g>
      </g>
      <g class="com.sun.star.drawing.OpenBezierShape">
       <g id="id28">
        <rect class="BoundingBox" stroke="none" fill="none" x="18235" y="12191" width="2341" height="944"/>
        <path fill="none" stroke="rgb(182,52,52)" stroke-width="106" stroke-linejoin="round" d="M 20239,12954 L 18415,12954 18415,12527"/>
        <path fill="rgb(182,52,52)" stroke="none" d="M 20574,12774 L 20574,13133 20215,13133 20215,12774 20574,12774 Z"/>
        <path fill="rgb(182,52,52)" stroke="none" d="M 18236,12192 L 18595,12192 18595,12551 18236,12551 18236,12192 Z"/>
       </g>
      </g>
      <g class="com.sun.star.drawing.CustomShape">
       <g id="id29">
        <rect class="BoundingBox" stroke="none" fill="none" x="18034" y="12192" width="763" height="255"/>
        <path fill="rgb(182,52,52)" stroke="none" d="M 18415,12446 L 18034,12446 18034,12192 18796,12192 18796,12446 18415,12446 Z"/>
       </g>
      </g>
      <g class="com.sun.star.drawing.CustomShape">
       <g id="id30">
        <rect class="BoundingBox" stroke="none" fill="none" x="18288" y="11683" width="255" height="128"/>
        <path fill="rgb(221,221,221)" stroke="none" d="M 18415,11810 L 18288,11810 18288,11683 18542,11683 18542,11810 18415,11810 Z"/>
       </g>
      </g>
      <g class="com.sun.star.drawing.OpenBezierShape">
       <g id="id31">
        <rect class="BoundingBox" stroke="none" fill="none" x="2894" y="9131" width="1688" height="2708"/>
        <path fill="none" stroke="rgb(0,0,0)" stroke-width="53" stroke-linejoin="round" d="M 3937,11811 L 2921,11811 2921,9271 4554,9271"/>
        <path fill="rgb(0,0,0)" stroke="none" d="M 4572,9131 L 4572,9224 4572,9317 4572,9410 4560,9410 4548,9410 4535,9410 4535,9318 4535,9225 4535,9131 4547,9131 4559,9131 4572,9131 Z"/>
       </g>
      </g>
      <g class="com.sun.star.drawing.LineShape">
       <g id="id32">
        <rect class="BoundingBox" stroke="none" fill="none" x="3910" y="11784" width="309" height="55"/>
        <path fill="none" stroke="rgb(221,221,221)" stroke-width="53" stroke-linejoin="round" d="M 3937,11811 L 4191,11811"/>
       </g>
      </g>
      <g class="com.sun.star.drawing.LineShape">
       <g id="id33">
        <rect class="BoundingBox" stroke="none" fill="none" x="3910" y="14197" width="309" height="55"/>
        <path fill="none" stroke="rgb(221,221,221)" stroke-width="53" stroke-linejoin="round" d="M 3937,14224 L 4191,14224"/>
       </g>
      </g>
      <g class="com.sun.star.drawing.OpenBezierShape">
       <g id="id34">
        <rect class="BoundingBox" stroke="none" fill="none" x="1624" y="7988" width="2958" height="6264"/>
        <path fill="none" stroke="rgb(182,52,52)" stroke-width="53" stroke-linejoin="round" d="M 3937,14224 L 1651,14224 1651,8128 4554,8128"/>
        <path fill="rgb(182,52,52)" stroke="none" d="M 4572,7989 L 4572,8081 4572,8174 4572,8268 4560,8268 4548,8268 4535,8268 4535,8175 4535,8082 4535,7989 4547,7989 4559,7989 4572,7989 Z"/>
       </g>
      </g>
      <g class="com.sun.star.drawing.OpenBezierShape">
       <g id="id35">
        <rect class="BoundingBox" stroke="none" fill="none" x="18533" y="4686" width="2042" height="2694"/>
        <path fill="none" stroke="rgb(182,52,52)" stroke-width="53" stroke-linejoin="round" d="M 18560,7239 L 19812,7239 19812,4826 20314,4826"/>
        <path fill="rgb(182,52,52)" stroke="none" d="M 18542,7379 L 18542,7286 18542,7193 18542,7100 18554,7100 18566,7100 18579,7100 18579,7192 18579,7285 18579,7379 18567,7379 18555,7379 18542,7379 Z"/>
        <path fill="rgb(182,52,52)" stroke="none" d="M 20574,4687 L 20574,4966 20295,4966 20295,4687 20574,4687 Z"/>
       </g>
      </g>
      <g class="com.sun.star.drawing.OpenBezierShape">
       <g id="id36">
        <rect class="BoundingBox" stroke="none" fill="none" x="18533" y="7607" width="2042" height="281"/>
        <path fill="none" stroke="rgb(0,0,0)" stroke-width="53" stroke-linejoin="round" d="M 18560,7747 L 19812,7747 20314,7747"/>
        <path fill="rgb(0,0,0)" stroke="none" d="M 18542,7887 L 18542,7794 18542,7701 18542,7608 18554,7608 18566,7608 18579,7608 18579,7700 18579,7793 18579,7887 18567,7887 18555,7887 18542,7887 Z"/>
        <path fill="rgb(0,0,0)" stroke="none" d="M 20574,7608 L 20574,7887 20295,7887 20295,7608 20574,7608 Z"/>
       </g>
      </g>
      <g class="com.sun.star.drawing.CustomShape">
       <g id="id37">
        <rect class="BoundingBox" stroke="none" fill="none" x="9017" y="12573" width="4573" height="1017"/>
        <text class="TextShape"><tspan class="TextParagraph" font-family="Arial, sans-serif" font-size="494px" font-weight="400"><tspan class="TextPosition" x="9868" y="13253"><tspan fill="rgb(0,0,0)" stroke="none">alligator clips</tspan></tspan></tspan></text>
       </g>
      </g>
      <g class="com.sun.star.drawing.CustomShape">
       <g id="id38">
        <rect class="BoundingBox" stroke="none" fill="none" x="12573" y="7365" width="1017" height="382"/>
        <path fill="rgb(221,221,221)" stroke="none" d="M 13081,7746 L 12573,7746 12573,7365 13589,7365 13589,7746 13081,7746 Z"/>
       </g>
      </g>
      <g class="com.sun.star.drawing.CustomShape">
       <g id="id39">
        <rect class="BoundingBox" stroke="none" fill="none" x="11937" y="6984" width="636" height="1144"/>
        <path fill="rgb(102,102,102)" stroke="none" d="M 12255,8127 L 11937,8127 11937,6984 12572,6984 12572,8127 12255,8127 Z"/>
       </g>
      </g>
      <g class="com.sun.star.drawing.CustomShape">
       <g id="id40">
        <rect class="BoundingBox" stroke="none" fill="none" x="11430" y="8127" width="1779" height="1144"/>
        <path fill="rgb(128,128,128)" stroke="none" d="M 12319,9270 L 11430,9270 11430,8127 13208,8127 13208,9270 12319,9270 Z"/>
       </g>
      </g>
      <g class="com.sun.star.drawing.CustomShape">
       <g id="id41">
        <rect class="BoundingBox" stroke="none" fill="none" x="11810" y="7365" width="128" height="382"/>
        <path fill="rgb(221,221,221)" stroke="none" d="M 11874,7746 L 11810,7746 11810,7365 11937,7365 11937,7746 11874,7746 Z"/>
       </g>
      </g>
      <g class="com.sun.star.drawing.CustomShape">
       <g id="id42">
        <rect class="BoundingBox" stroke="none" fill="none" x="13207" y="8508" width="128" height="382"/>
        <path fill="rgb(221,221,221)" stroke="none" d="M 13271,8889 L 13207,8889 13207,8508 13334,8508 13334,8889 13271,8889 Z"/>
       </g>
      </g>
      <g class="com.sun.star.drawing.LineShape">
       <g id="id43">
        <rect class="BoundingBox" stroke="none" fill="none" x="8635" y="3809" width="1781" height="3559"/>
        <path fill="none" stroke="rgb(0,0,0)" d="M 8636,7366 L 8659,7320"/>
        <path fill="none" stroke="rgb(0,0,0)" d="M 8716,7207 L 8738,7161"/>
        <path fill="none" stroke="rgb(0,0,0)" d="M 8795,7048 L 8909,6820"/>
        <path fill="none" stroke="rgb(0,0,0)" d="M 8966,6707 L 9079,6480"/>
        <path fill="none" stroke="rgb(0,0,0)" d="M 9136,6366 L 9250,6139"/>
        <path fill="none" stroke="rgb(0,0,0)" d="M 9306,6025 L 9329,5980"/>
        <path fill="none" stroke="rgb(0,0,0)" d="M 9386,5866 L 9409,5820"/>
        <path fill="none" stroke="rgb(0,0,0)" d="M 9466,5707 L 9579,5480"/>
        <path fill="none" stroke="rgb(0,0,0)" d="M 9636,5366 L 9750,5139"/>
        <path fill="none" stroke="rgb(0,0,0)" d="M 9806,5025 L 9920,4798"/>
        <path fill="none" stroke="rgb(0,0,0)" d="M 9977,4685 L 10000,4639"/>
        <path fill="none" stroke="rgb(0,0,0)" d="M 10056,4525 L 10079,4480"/>
        <path fill="none" stroke="rgb(0,0,0)" d="M 10136,4366 L 10250,4139"/>
        <path fill="none" stroke="rgb(0,0,0)" d="M 10306,4025 L 10414,3810"/>
       </g>
      </g>
      <g class="com.sun.star.drawing.LineShape">
       <g id="id44">
        <rect class="BoundingBox" stroke="none" fill="none" x="13334" y="3809" width="1527" height="2924"/>
        <path fill="none" stroke="rgb(0,0,0)" d="M 14859,6731 L 14835,6686"/>
        <path fill="none" stroke="rgb(0,0,0)" d="M 14777,6573 L 14753,6528"/>
        <path fill="none" stroke="rgb(0,0,0)" d="M 14694,6415 L 14577,6190"/>
        <path fill="none" stroke="rgb(0,0,0)" d="M 14518,6078 L 14401,5852"/>
        <path fill="none" stroke="rgb(0,0,0)" d="M 14342,5740 L 14224,5515"/>
        <path fill="none" stroke="rgb(0,0,0)" d="M 14166,5402 L 14142,5357"/>
        <path fill="none" stroke="rgb(0,0,0)" d="M 14083,5244 L 14060,5199"/>
        <path fill="none" stroke="rgb(0,0,0)" d="M 14001,5086 L 13883,4861"/>
        <path fill="none" stroke="rgb(0,0,0)" d="M 13825,4749 L 13707,4523"/>
        <path fill="none" stroke="rgb(0,0,0)" d="M 13648,4411 L 13531,4186"/>
        <path fill="none" stroke="rgb(0,0,0)" d="M 13472,4073 L 13449,4028"/>
        <path fill="none" stroke="rgb(0,0,0)" d="M 13390,3915 L 13366,3870"/>
       </g>
      </g>
      <g class="com.sun.star.drawing.CustomShape">
       <g id="id45">
        <rect class="BoundingBox" stroke="none" fill="none" x="10414" y="8381" width="509" height="1906"/>
        <path fill="rgb(238,238,238)" stroke="none" d="M 10668,10286 L 10414,10286 10414,8381 10922,8381 10922,10286 10668,10286 Z"/>
       </g>
      </g>
     </g>
    </g>
   </g>
  </g>
 </g>
</svg>